23

-9
8
-10
6
-10
7
7
8

-4
-7
-8
6
5
-4
-7
-8
-1
-1
5

-3
5
4
8
6
-9
6
-4
6

7
7
6
7
-6
8
-2
4

4
5
8
4
5

6
7
4
-5
7
-9
-2
8
-5
4
-4

-4
-10
4
5
-8

-10
-5
6
-10
-3
4
-1
4

6
8
-8
-10
6
4

7
-9
6
5
4
4
8
6
-1
-7

8
8
8
8
6
-1

-5
7
-6
-7
-5

-4
-6
-10
4
7
7
7

-2
-6
-4
-4
7
-9

-9
4
7
8
6
-5
5
-1

-3
-4
-9
-4
5
5
-1
-6
-10
5
-7
-8
-5

-7
-7
-8
6
-3
5
-4
-9

6
-4
-8

-7
7
-9
5
7
-2
-8

5
-9
6
-6
-10
-7
-2
-4
7
7
6

7
6
5
4
4
-1
8
-9
6
7
-7
4

-1
4
6
-10
-5
-8
8
7
-6
-8
-7
5
-6

-4
-1
6
-7
6
7
8
5
