72 -32 872
-80 904
-16 -96 -24 -24 -32 -24 -64 -40 -96 -24 472
-16 24 -96 832
-24 960
64 -64 848
-32 -80 864
-16 -56 904
992
-88 -80 -56 -88 648
8 -64 -40 -16 832
-16 -40 -80 -96 728
-48 88 -32 -96 696
-8 -24 -48 -96 784
-24 40 -64 -40 -24 -80 672
-32 -96 -64 776
-40 80 -96 -88 -16 -88 536
-32 -32 -80 -24 24 -32 -80 -48 576
-72 -48 -32 -24 -48 -56 664
-64 -96 -8 -8 -40 736
-16 72 -8 -40 824
-72 -56 848
-88 896
-24 32 -40 -32 -56 96 -88 568
-32 -8 -48 -16 -96 -96 648
-72 -32 -72 792
-96 -88 -72 -88 616
