29

-8
9
4
13
10
6
-5

-6
6
7
4
7
-3

8
7
13
6
7
11
8

3
-3
9
15
2
-7
8

12
-4
-10
-10
-9
12

11
10
12
-5
9
3

-6
2
10
15
15
2
9

14
11
-7
8
7
10
11

-9
2
-6
11
2
9
8

7
9
10
-2
9
5
15

7
-2
10
-6
-4
14
13

14
-6
-3
-7
6
10

6
14
4
6
14
7

4
12
10
-6
4
13

-1
6
-10
3
11
-1
11

-5
1
14
7
8
2

14
8
12
7
6
2
14

11
9
-2
8
4
13

6
4
11
-5
15
12
4

13
11
9
12
10
10

7
13
11
4
2
1

-7
-8
6
14
15
-8

13
12
-7
7
11
15

3
1
2
7
10
2
-3

3
9
15
2
12
14

4
2
11
1
14
3

15
-8
5
4
3
-2
9

2
10
15
-7
4
4
15

9
10
-7
14
-3
15
