-96 -56 -16 -16 776
-16 -40 920
-88 -72 144 -72 584
-80 904
-72 -104 120 -120 -80 456
-104 880
-8 -72 -32 -24 -80 96 -32 592
-104 -8 864
-80 -32 -104 -40 -32 -48 -24 576
-96 -40 840
-112 -88 -56 712
-8 -24 944
-40 -40 -64 824
-16 -16 944
-40 -88 848
-88 -8 880
-112 -104 760
-16 -40 -112 -8 40 -64 -104 552
-8 -72 896
-32 -8 -48 -16 856
-8 976
-40 -88 848
-40 -112 824
-120 864
-8 -48 -88 -48 -24 736
-88 -40 848
-88 -96 -112 -48 616
-80 904
-112 872
-104 -120 -16 728
