29

9
-9
-4
4
4
4
5

13
6
2
2
3
4
5

-9
9
-2
-8
-1
2
2
3
4

2
9
5
-7
1
1
1
6

6
-2
2
2
-1
-1

4
3
4
5

2
10
11
-4
-8

-2
-5
-2

-4
-7
12
-7
7
-6

-4
3
-5
-1
7

15
-5
15
11
-3
-2

-6
7
-1
-3
6
9
-3

-10

-8
-2
-2
13
10
-3

-10
-6
-1
-6

-10
-1

13
2
-2
2
6
13
2

15
5

12
6
15
12
9

2
1
1
1
-1
-1
-1

12
4
8
-9
1

13
-8
-4

-9
9
7
13
-1
-6
-6

8
-3
1
12
-2
2
2
1
-9

8
8
8
8
8
8
8

5
-4
-9
-9
-1
3

-1
-6
1
2
-7
11
-6
1
2
-7
11

-3
-6
1
2
-7
11
11
-6
1
2
-7
11

10
15
2
-7
11
11
1
2
-7
11
11
