-72 -32 -32 -32 -40 744 
-104 -48 -16 -16 -24 -32 -40 656 
-16 -16 -24 -32 872 
-16 -72 -40 -8 -8 -8 -48 736 
72 -16 888 
-32 -24 -32 -40 832 
-16 -80 -88 784 
992 
-96 -56 824 
-56 928 
-120 864 
-48 -72 856 
992 
-104 -80 792 
992 
992 
-104 -16 -48 -104 -16 664 
-120 -40 816 
-96 -48 -120 -96 -72 520 
48 -8 920 
-96 -32 -64 -8 760 
-104 880 
72 -56 -104 736 
-64 -8 -96 -16 -16 752 
-64 -64 -64 -64 -64 -64 -64 488 
-24 960 
-8 -16 -88 -8 -16 -88 720 
-8 -16 -88 -88 -8 -16 -88 624 
-80 -120 -16 -88 -88 -8 -88 -88 352 
